Comment,Designator,Footprint,LCSC, Info, LCSC, Umax
"Arduino_Nano_v3.x","A1","Module:Arduino_Nano",""
"1u","C2,C1","Capacitor_SMD:C_0603_1608Metric",""
"47u","C3","Capacitor_THT:CP_Radial_D5.0mm_P2.00mm",""
"10u","C4,C5","Capacitor_SMD:C_1206_3216Metric","","","","16V"
"691411410002","J1,J2","Wurth:WR-TBL-7.62mm-2P_691411410002","","12V","",""
"691411410004","J4,J3,J5,J6","Wurth:WR-TBL-7.62mm-4P_691411410004","","LED1","",""
"Mic","J7","Connector_PinHeader_2.54mm:PinHeader_1x03_P2.54mm_Vertical","","Mic","",""
"NeoPixel","J8","Connector_PinHeader_2.54mm:PinHeader_1x03_P2.54mm_Vertical","","NeoPixel","",""
"Logo_Open_Hardware_Large","LOGO1,LOGO2","GoInK:GoInK300",""
"Net-Tie_2","NT1","NetTie:NetTie-2_SMD_Pad0.5mm",""
"AP4438","Q1,Q2,Q3,Q4,Q5,Q6,Q8,Q9,Q10,Q11,Q12,Q7","Package_TO_SOT_SMD:SOT-89-3","","","C353072",""
"1k","R1,R2,R3,R7,R8,R9,R14,R15,R16,R20,R21,R22","Resistor_SMD:R_0603_1608Metric",""
"470","R13","Resistor_SMD:R_0603_1608Metric",""
"470k","R4,R5,R6,R10,R11,R12,R18,R19,R23,R24,R25,R17","Resistor_SMD:R_0603_1608Metric",""
"WeMos_D1_mini","U1","Module:WEMOS_D1_mini_light",""
"L7805","U2","Package_TO_SOT_THT:TO-220-3_Vertical",""
"TSOP45xx","U3","OptoDevice:Vishay_MOLD-3Pin",""